[
    {"placeType": "Any","layerType": "Cutout","hasGUI": false,"extraVariants": [],"resourceName": "excavator","model": "requious:assembly_block","colors": [{"r": 255,"g": 255,"b": 255,"a": 255}],"hardness": 5.0,"blastResistance": 5.0,"aabb": {"x1": 0.0,"y1": 0.0,"z1": 0.0,"x2": 1.0,"y2": 1.0,"z2": 1.0}},
    {"placeType": "Any","layerType": "Cutout","hasGUI": false,"extraVariants": [],"resourceName": "activate_block_or_entity","model": "requious:assembly_block","colors": [{"r": 255,"g": 255,"b": 255,"a": 255}],"hardness": 5.0,"blastResistance": 5.0,"aabb": {"x1": 0.0,"y1": 0.0,"z1": 0.0,"x2": 1.0,"y2": 1.0,"z2": 1.0}},
    {"placeType": "Any","layerType": "Cutout","hasGUI": false,"extraVariants": [],"resourceName": "metamorphic","model": "requious:assembly_block","colors": [{"r": 255,"g": 255,"b": 255,"a": 255}],"hardness": 5.0,"blastResistance": 5.0,"aabb": {"x1": 0.0,"y1": 0.0,"z1": 0.0,"x2": 1.0,"y2": 1.0,"z2": 1.0}},
    {"placeType": "Any","layerType": "Cutout","hasGUI": false,"extraVariants": [],"resourceName": "configure","model": "requious:assembly_block","colors": [{"r": 255,"g": 255,"b": 255,"a": 255}],"hardness": 5.0,"blastResistance": 5.0,"aabb": {"x1": 0.0,"y1": 0.0,"z1": 0.0,"x2": 1.0,"y2": 1.0,"z2": 1.0}},
    {"placeType": "Any","layerType": "Cutout","hasGUI": false,"extraVariants": [],"resourceName": "terra_plate","model": "requious:assembly_block","colors": [{"r": 255,"g": 255,"b": 255,"a": 255}],"hardness": 5.0,"blastResistance": 5.0,"aabb": {"x1": 0.0,"y1": 0.0,"z1": 0.0,"x2": 1.0,"y2": 1.0,"z2": 1.0}},
    {"placeType": "Any","layerType": "Cutout","hasGUI": false,"extraVariants": [],"resourceName": "beacon_base","model": "requious:assembly_block","colors": [{"r": 255,"g": 255,"b": 255,"a": 255}],"hardness": 5.0,"blastResistance": 5.0,"aabb": {"x1": 0.0,"y1": 0.0,"z1": 0.0,"x2": 1.0,"y2": 1.0,"z2": 1.0}},
    {"placeType": "Any","layerType": "Cutout","hasGUI": false,"extraVariants": [],"resourceName": "enervation_dynamo","model": "requious:assembly_block","colors": [{"r": 255,"g": 255,"b": 255,"a": 255}],"hardness": 5.0,"blastResistance": 5.0,"aabb": {"x1": 0.0,"y1": 0.0,"z1": 0.0,"x2": 1.0,"y2": 1.0,"z2": 1.0}},
    {"placeType": "Any","layerType": "Cutout","hasGUI": false,"extraVariants": [],"resourceName": "roots_entity_spawning","model": "requious:assembly_block","colors": [{"r": 255,"g": 255,"b": 255,"a": 255}],"hardness": 5.0,"blastResistance": 5.0,"aabb": {"x1": 0.0,"y1": 0.0,"z1": 0.0,"x2": 1.0,"y2": 1.0,"z2": 1.0}},
    {"placeType": "Any","layerType": "Cutout","hasGUI": false,"extraVariants": [],"resourceName": "roots_block_conversion","model": "requious:assembly_block","colors": [{"r": 255,"g": 255,"b": 255,"a": 255}],"hardness": 5.0,"blastResistance": 5.0,"aabb": {"x1": 0.0,"y1": 0.0,"z1": 0.0,"x2": 1.0,"y2": 1.0,"z2": 1.0}},
    {"placeType": "Any","layerType": "Cutout","hasGUI": false,"extraVariants": [],"resourceName": "charge","model": "requious:assembly_block","colors": [{"r": 255,"g": 255,"b": 255,"a": 255}],"hardness": 5.0,"blastResistance": 5.0,"aabb": {"x1": 0.0,"y1": 0.0,"z1": 0.0,"x2": 1.0,"y2": 1.0,"z2": 1.0}}
]
